module github.com/pulumi/pulumi-gcp/provider/v6

go 1.16

require (
	cloud.google.com/go/kms v1.0.0 // indirect
	github.com/hashicorp/terraform-provider-google-beta v1.20.1-0.20210315160117-642085ce9b99
	github.com/pulumi/pulumi-terraform-bridge/v3 v3.18.0
	github.com/pulumi/pulumi/sdk/v3 v3.23.2
)

replace (
	github.com/hashicorp/terraform-plugin-sdk/v2 => github.com/pulumi/terraform-plugin-sdk/v2 v2.0.0-20201218231525-9cca98608a5e
	github.com/hashicorp/terraform-provider-google-beta => github.com/pulumi/terraform-provider-google-beta v0.0.0-20220207201030-d83366dfa654
	github.com/hashicorp/vault => github.com/hashicorp/vault v1.2.0
)
